{
        "title": "cho",
        "baseUrl": "//choskyo.net/",
        "defaultContentLanguage": "en",
        "theme": "choskyo",
        "defaultContentLanguageInSubdir": true,
        "languages": {
                "en": {
                        "languageName": "English",
                        "params": {
                                "OtherPosts": "Misc Posts",
                                "projects": {
                                        "other": "Projects"
                                }
                        }
                },
                "nb": {
                        "languageName": "Norsk",
                        "params": {
                                "OtherPosts": "Andre Innlegg",
                                "projects": {
                                        "other": "Prosjekter"
                                }
                        }
                }
        }
}